Code-SUB指令/sub_test.vcd
$date
	Fri Dec 27 08:48:41 2019
$end
$version
	Icarus Verilog
$end
$timescale
	1ps
$end
$scope module openmips_min_sopc_tb $end
$var reg 1 ! CLOCK_50 $end
$var reg 1 " rst $end
$scope module openmips_min_sopc0 $end
$var wire 1 ! clk $end
$var wire 1 " rst $end
$var wire 1 # rom_ce $end
$var wire 32 $ inst_addr [31:0] $end
$var wire 32 % inst [31:0] $end
$scope module inst_rom0 $end
$var wire 1 # ce $end
$var wire 32 & addr [31:0] $end
$var reg 32 ' inst [31:0] $end
$upscope $end
$scope module openmips0 $end
$var wire 1 ! clk $end
$var wire 32 ( rom_addr_o [31:0] $end
$var wire 32 ) rom_data_i [31:0] $end
$var wire 1 " rst $end
$var wire 1 * wb_wreg_i $end
$var wire 32 + wb_wdata_i [31:0] $end
$var wire 5 , wb_wd_i [4:0] $end
$var wire 1 # rom_ce_o $end
$var wire 1 - reg2_read $end
$var wire 32 . reg2_data [31:0] $end
$var wire 5 / reg2_addr [4:0] $end
$var wire 1 0 reg1_read $end
$var wire 32 1 reg1_data [31:0] $end
$var wire 5 2 reg1_addr [4:0] $end
$var wire 32 3 pc [31:0] $end
$var wire 1 4 mem_wreg_o $end
$var wire 1 5 mem_wreg_i $end
$var wire 32 6 mem_wdata_o [31:0] $end
$var wire 32 7 mem_wdata_i [31:0] $end
$var wire 5 8 mem_wd_o [4:0] $end
$var wire 5 9 mem_wd_i [4:0] $end
$var wire 1 : id_wreg_o $end
$var wire 5 ; id_wd_o [4:0] $end
$var wire 32 < id_reg2_o [31:0] $end
$var wire 32 = id_reg1_o [31:0] $end
$var wire 32 > id_pc_i [31:0] $end
$var wire 32 ? id_inst_i [31:0] $end
$var wire 3 @ id_alusel_o [2:0] $end
$var wire 8 A id_aluop_o [7:0] $end
$var wire 1 B ex_wreg_o $end
$var wire 1 C ex_wreg_i $end
$var wire 32 D ex_wdata_o [31:0] $end
$var wire 5 E ex_wd_o [4:0] $end
$var wire 5 F ex_wd_i [4:0] $end
$var wire 32 G ex_reg2_i [31:0] $end
$var wire 32 H ex_reg1_i [31:0] $end
$var wire 3 I ex_alusel_i [2:0] $end
$var wire 8 J ex_aluop_i [7:0] $end
$scope module ex0 $end
$var wire 1 " rst $end
$var wire 1 C wreg_i $end
$var wire 5 K wd_i [4:0] $end
$var wire 32 L reg2_i [31:0] $end
$var wire 32 M reg1_i [31:0] $end
$var wire 3 N alusel_i [2:0] $end
$var wire 8 O aluop_i [7:0] $end
$var reg 32 P arithmeticout [31:0] $end
$var reg 5 Q wd_o [4:0] $end
$var reg 32 R wdata_o [31:0] $end
$var reg 1 B wreg_o $end
$upscope $end
$scope module ex_mem0 $end
$var wire 1 ! clk $end
$var wire 5 S ex_wd [4:0] $end
$var wire 32 T ex_wdata [31:0] $end
$var wire 1 B ex_wreg $end
$var wire 1 " rst $end
$var reg 5 U mem_wd [4:0] $end
$var reg 32 V mem_wdata [31:0] $end
$var reg 1 5 mem_wreg $end
$upscope $end
$scope module id0 $end
$var wire 1 " rst $end
$var wire 32 W reg2_data_i [31:0] $end
$var wire 32 X reg1_data_i [31:0] $end
$var wire 32 Y pc_i [31:0] $end
$var wire 5 Z op4 [4:0] $end
$var wire 6 [ op3 [5:0] $end
$var wire 5 \ op2 [4:0] $end
$var wire 6 ] op [5:0] $end
$var wire 32 ^ inst_i [31:0] $end
$var reg 8 _ aluop_o [7:0] $end
$var reg 3 ` alusel_o [2:0] $end
$var reg 32 a imm [31:0] $end
$var reg 1 b instvalid $end
$var reg 5 c reg1_addr_o [4:0] $end
$var reg 32 d reg1_o [31:0] $end
$var reg 1 0 reg1_read_o $end
$var reg 5 e reg2_addr_o [4:0] $end
$var reg 32 f reg2_o [31:0] $end
$var reg 1 - reg2_read_o $end
$var reg 5 g wd_o [4:0] $end
$var reg 1 : wreg_o $end
$upscope $end
$scope module id_ex0 $end
$var wire 1 ! clk $end
$var wire 8 h id_aluop [7:0] $end
$var wire 3 i id_alusel [2:0] $end
$var wire 32 j id_reg1 [31:0] $end
$var wire 32 k id_reg2 [31:0] $end
$var wire 5 l id_wd [4:0] $end
$var wire 1 : id_wreg $end
$var wire 1 " rst $end
$var reg 8 m ex_aluop [7:0] $end
$var reg 3 n ex_alusel [2:0] $end
$var reg 32 o ex_reg1 [31:0] $end
$var reg 32 p ex_reg2 [31:0] $end
$var reg 5 q ex_wd [4:0] $end
$var reg 1 C ex_wreg $end
$upscope $end
$scope module if_id0 $end
$var wire 1 ! clk $end
$var wire 32 r if_inst [31:0] $end
$var wire 1 " rst $end
$var wire 32 s if_pc [31:0] $end
$var reg 32 t id_inst [31:0] $end
$var reg 32 u id_pc [31:0] $end
$upscope $end
$scope module mem0 $end
$var wire 1 " rst $end
$var wire 5 v wd_i [4:0] $end
$var wire 32 w wdata_i [31:0] $end
$var wire 1 5 wreg_i $end
$var reg 5 x wd_o [4:0] $end
$var reg 32 y wdata_o [31:0] $end
$var reg 1 4 wreg_o $end
$upscope $end
$scope module mem_wb0 $end
$var wire 1 ! clk $end
$var wire 5 z mem_wd [4:0] $end
$var wire 32 { mem_wdata [31:0] $end
$var wire 1 4 mem_wreg $end
$var wire 1 " rst $end
$var reg 5 | wb_wd [4:0] $end
$var reg 32 } wb_wdata [31:0] $end
$var reg 1 * wb_wreg $end
$upscope $end
$scope module pc_reg0 $end
$var wire 1 ! clk $end
$var wire 1 " rst $end
$var reg 1 # ce $end
$var reg 32 ~ pc [31:0] $end
$upscope $end
$scope module regfile1 $end
$var wire 1 ! clk $end
$var wire 5 !" raddr1 [4:0] $end
$var wire 5 "" raddr2 [4:0] $end
$var wire 1 0 re1 $end
$var wire 1 - re2 $end
$var wire 1 " rst $end
$var wire 5 #" waddr [4:0] $end
$var wire 32 $" wdata [31:0] $end
$var wire 1 * we $end
$var reg 32 %" rdata1 [31:0] $end
$var reg 32 &" rdata2 [31:0] $end
$upscope $end
$upscope $end
$upscope $end
$upscope $end
$enddefinitions $end
#0
$dumpvars
b0 &"
b0 %"
bx $"
bx #"
b0 ""
b0 !"
bx ~
bx }
bx |
b0 {
b0 z
b0 y
b0 x
bx w
bx v
bx u
bx t
bx s
bx r
bx q
bx p
bx o
bx n
bx m
b0 l
b0 k
b0 j
b0 i
b0 h
b0 g
b0 f
b0 e
b0 d
b0 c
0b
b0 a
b0 `
b0 _
bx ^
bx ]
bx \
bx [
bx Z
bx Y
b0 X
b0 W
bx V
bx U
b0 T
bx S
b0 R
bx Q
b0 P
bx O
bx N
bx M
bx L
bx K
bx J
bx I
bx H
bx G
bx F
bx E
b0 D
xC
xB
b0 A
b0 @
bx ?
bx >
b0 =
b0 <
b0 ;
0:
bx 9
b0 8
bx 7
b0 6
x5
04
bx 3
b0 2
b0 1
00
b0 /
b0 .
0-
bx ,
bx +
x*
bx )
bx (
bx '
bx &
bx %
bx $
x#
1"
0!
$end
#10000
b0 %
b0 '
b0 )
b0 r
0B
b0 E
b0 Q
b0 S
b0 Z
b0 [
b0 \
b0 ]
0#
b0 ?
b0 ^
b0 t
b0 >
b0 Y
b0 u
0C
b0 F
b0 K
b0 q
b0 G
b0 L
b0 p
b0 H
b0 M
b0 o
b0 I
b0 N
b0 n
b0 J
b0 O
b0 m
b0 7
b0 V
b0 w
05
b0 9
b0 U
b0 v
b0 +
b0 }
b0 $"
0*
b0 ,
b0 |
b0 #"
1!
#20000
0!
#30000
b0 $
b0 &
b0 (
b0 3
b0 s
b0 ~
1!
#40000
0!
#50000
1!
#60000
0!
#70000
1!
#80000
0!
#90000
1!
#100000
0!
#110000
1!
#120000
0!
#130000
1!
#140000
0!
#150000
1!
#160000
0!
#170000
1!
#180000
0!
#190000
1!
#195000
1b
0"
#200000
0!
#210000
b1000100001100000100011 %
b1000100001100000100011 '
b1000100001100000100011 )
b1000100001100000100011 r
1#
1!
#220000
0!
#230000
b10000000000000001000000000000 <
b10000000000000001000000000000 f
b10000000000000001000000000000 k
b10001000100010001000100010001 =
b10001000100010001000100010001 d
b10001000100010001000100010001 j
b10000000000000001000000000000 .
b10000000000000001000000000000 W
b10000000000000001000000000000 &"
b10001000100010001000100010001 1
b10001000100010001000100010001 X
b10001000100010001000100010001 %"
0b
1-
10
b100 @
b100 `
b100 i
b10001 A
b10001 _
b10001 h
1:
b10 /
b10 e
b10 ""
b1 2
b1 c
b1 !"
b11 ;
b11 g
b11 l
b1001000010100000100011 %
b1001000010100000100011 '
b1001000010100000100011 )
b1001000010100000100011 r
b10 Z
b100011 [
b1000100001100000100011 ?
b1000100001100000100011 ^
b1000100001100000100011 t
b100 $
b100 &
b100 (
b100 3
b100 s
b100 ~
1!
#240000
0!
#250000
b100000000000000010000 <
b100000000000000010000 f
b100000000000000010000 k
b100000000000000010000 .
b100000000000000010000 W
b100000000000000010000 &"
b1000100010000000100010001 D
b1000100010000000100010001 R
b1000100010000000100010001 T
b1001100011100000100011 %
b1001100011100000100011 '
b1001100011100000100011 )
b1001100011100000100011 r
b100 /
b100 e
b100 ""
1-
10
0b
1:
b101 ;
b101 g
b101 l
b100 @
b100 `
b100 i
b10001 A
b10001 _
b10001 h
1B
b11 E
b11 Q
b11 S
b1000100010000000100010001 P
b100 Z
b1000 $
b1000 &
b1000 (
b1000 3
b1000 s
b1000 ~
b1001000010100000100011 ?
b1001000010100000100011 ^
b1001000010100000100011 t
b100 >
b100 Y
b100 u
1C
b11 F
b11 K
b11 q
b10000000000000001000000000000 G
b10000000000000001000000000000 L
b10000000000000001000000000000 p
b10001000100010001000100010001 H
b10001000100010001000100010001 M
b10001000100010001000100010001 o
b100 I
b100 N
b100 n
b10001 J
b10001 O
b10001 m
1!
#260000
0!
#270000
b1000000000001000000000000 <
b1000000000001000000000000 f
b1000000000001000000000000 k
b10001000000010001000100000001 D
b10001000000010001000100000001 R
b10001000000010001000100000001 T
b1000000000001000000000000 .
b1000000000001000000000000 W
b1000000000001000000000000 &"
b1000100010000000100010001 6
b1000100010000000100010001 y
b1000100010000000100010001 {
14
b11 8
b11 x
b11 z
b101 E
b101 Q
b101 S
b10001000000010001000100000001 P
b110 /
b110 e
b110 ""
1-
10
0b
1:
b111 ;
b111 g
b111 l
b100 @
b100 `
b100 i
b10001 A
b10001 _
b10001 h
b1010000100100000100011 %
b1010000100100000100011 '
b1010000100100000100011 )
b1010000100100000100011 r
b110 Z
b1000100010000000100010001 7
b1000100010000000100010001 V
b1000100010000000100010001 w
15
b11 9
b11 U
b11 v
b101 F
b101 K
b101 q
b100000000000000010000 G
b100000000000000010000 L
b100000000000000010000 p
b1001100011100000100011 ?
b1001100011100000100011 ^
b1001100011100000100011 t
b1000 >
b1000 Y
b1000 u
b1100 $
b1100 &
b1100 (
b1100 3
b1100 s
b1100 ~
1!
#280000
0!
#290000
b10001000100000001000100010000 <
b10001000100000001000100010000 f
b10001000100000001000100010000 k
b10001000100000001000100010000 .
b10001000100000001000100010000 W
b10001000100000001000100010000 &"
b10000000100010000000100010001 D
b10000000100010000000100010001 R
b10000000100010000000100010001 T
b1010100101100000100011 %
b1010100101100000100011 '
b1010100101100000100011 )
b1010100101100000100011 r
b1000 /
b1000 e
b1000 ""
1-
10
0b
1:
b1001 ;
b1001 g
b1001 l
b100 @
b100 `
b100 i
b10001 A
b10001 _
b10001 h
b111 E
b111 Q
b111 S
b10000000100010000000100010001 P
b10001000000010001000100000001 6
b10001000000010001000100000001 y
b10001000000010001000100000001 {
b101 8
b101 x
b101 z
b1000 Z
b10000 $
b10000 &
b10000 (
b10000 3
b10000 s
b10000 ~
b1010000100100000100011 ?
b1010000100100000100011 ^
b1010000100100000100011 t
b1100 >
b1100 Y
b1100 u
b111 F
b111 K
b111 q
b1000000000001000000000000 G
b1000000000001000000000000 L
b1000000000001000000000000 p
b10001000000010001000100000001 7
b10001000000010001000100000001 V
b10001000000010001000100000001 w
b101 9
b101 U
b101 v
b1000100010000000100010001 +
b1000100010000000100010001 }
b1000100010000000100010001 $"
1*
b11 ,
b11 |
b11 #"
1!
#300000
0!
#310000
b10000000100000001000000010000 <
b10000000100000001000000010000 f
b10000000100000001000000010000 k
b10000000000000001 D
b10000000000000001 R
b10000000000000001 T
b10000000100000001000000010000 .
b10000000100000001000000010000 W
b10000000100000001000000010000 &"
b10000000100010000000100010001 6
b10000000100010000000100010001 y
b10000000100010000000100010001 {
b111 8
b111 x
b111 z
b1001 E
b1001 Q
b1001 S
b10000000000000001 P
b1010 /
b1010 e
b1010 ""
1-
10
0b
1:
b1011 ;
b1011 g
b1011 l
b100 @
b100 `
b100 i
b10001 A
b10001 _
b10001 h
b1011000110100000100011 %
b1011000110100000100011 '
b1011000110100000100011 )
b1011000110100000100011 r
b1010 Z
b10001000000010001000100000001 +
b10001000000010001000100000001 }
b10001000000010001000100000001 $"
b101 ,
b101 |
b101 #"
b10000000100010000000100010001 7
b10000000100010000000100010001 V
b10000000100010000000100010001 w
b111 9
b111 U
b111 v
b1001 F
b1001 K
b1001 q
b10001000100000001000100010000 G
b10001000100000001000100010000 L
b10001000100000001000100010000 p
b1010100101100000100011 ?
b1010100101100000100011 ^
b1010100101100000100011 t
b10000 >
b10000 Y
b10000 u
b10100 $
b10100 &
b10100 (
b10100 3
b10100 s
b10100 ~
1!
#320000
0!
#330000
b1000100000001000100010000 <
b1000100000001000100010000 f
b1000100000001000100010000 k
b1000100000001000100010000 .
b1000100000001000100010000 W
b1000100000001000100010000 &"
b1000000010000000100000001 D
b1000000010000000100000001 R
b1000000010000000100000001 T
b1011100111100000100011 %
b1011100111100000100011 '
b1011100111100000100011 )
b1011100111100000100011 r
b1100 /
b1100 e
b1100 ""
1-
10
0b
1:
b1101 ;
b1101 g
b1101 l
b100 @
b100 `
b100 i
b10001 A
b10001 _
b10001 h
b1011 E
b1011 Q
b1011 S
b1000000010000000100000001 P
b10000000000000001 6
b10000000000000001 y
b10000000000000001 {
b1001 8
b1001 x
b1001 z
b1100 Z
b11000 $
b11000 &
b11000 (
b11000 3
b11000 s
b11000 ~
b1011000110100000100011 ?
b1011000110100000100011 ^
b1011000110100000100011 t
b10100 >
b10100 Y
b10100 u
b1011 F
b1011 K
b1011 q
b10000000100000001000000010000 G
b10000000100000001000000010000 L
b10000000100000001000000010000 p
b10000000000000001 7
b10000000000000001 V
b10000000000000001 w
b1001 9
b1001 U
b1001 v
b10000000100010000000100010001 +
b10000000100010000000100010001 }
b10000000100010000000100010001 $"
b111 ,
b111 |
b111 #"
1!
#340000
0!
#350000
b10001000000000000000100010000 <
b10001000000000000000100010000 f
b10001000000000000000100010000 k
b10000000000010000000000000001 D
b10000000000010000000000000001 R
b10000000000010000000000000001 T
b10001000000000000000100010000 .
b10001000000000000000100010000 W
b10001000000000000000100010000 &"
b1000000010000000100000001 6
b1000000010000000100000001 y
b1000000010000000100000001 {
b1011 8
b1011 x
b1011 z
b1101 E
b1101 Q
b1101 S
b10000000000010000000000000001 P
b1110 /
b1110 e
b1110 ""
1-
10
0b
1:
b1111 ;
b1111 g
b1111 l
b100 @
b100 `
b100 i
b10001 A
b10001 _
b10001 h
b1100001000100000100011 %
b1100001000100000100011 '
b1100001000100000100011 )
b1100001000100000100011 r
b1110 Z
b10000000000000001 +
b10000000000000001 }
b10000000000000001 $"
b1001 ,
b1001 |
b1001 #"
b1000000010000000100000001 7
b1000000010000000100000001 V
b1000000010000000100000001 w
b1011 9
b1011 U
b1011 v
b1101 F
b1101 K
b1101 q
b1000100000001000100010000 G
b1000100000001000100010000 L
b1000100000001000100010000 p
b1011100111100000100011 ?
b1011100111100000100011 ^
b1011100111100000100011 t
b11000 >
b11000 Y
b11000 u
b11100 $
b11100 &
b11100 (
b11100 3
b11100 s
b11100 ~
1!
#360000
0!
#370000
b10000000100000000000000000000 <
b10000000100000000000000000000 f
b10000000100000000000000000000 k
b10000000100000000000000000000 .
b10000000100000000000000000000 W
b10000000100000000000000000000 &"
b100010001000000000001 D
b100010001000000000001 R
b100010001000000000001 T
b1100101001100000100011 %
b1100101001100000100011 '
b1100101001100000100011 )
b1100101001100000100011 r
b10000 /
b10000 e
b10000 ""
1-
10
0b
1:
b10001 ;
b10001 g
b10001 l
b100 @
b100 `
b100 i
b10001 A
b10001 _
b10001 h
b1111 E
b1111 Q
b1111 S
b100010001000000000001 P
b10000000000010000000000000001 6
b10000000000010000000000000001 y
b10000000000010000000000000001 {
b1101 8
b1101 x
b1101 z
b10000 Z
b100000 $
b100000 &
b100000 (
b100000 3
b100000 s
b100000 ~
b1100001000100000100011 ?
b1100001000100000100011 ^
b1100001000100000100011 t
b11100 >
b11100 Y
b11100 u
b1111 F
b1111 K
b1111 q
b10001000000000000000100010000 G
b10001000000000000000100010000 L
b10001000000000000000100010000 p
b10000000000010000000000000001 7
b10000000000010000000000000001 V
b10000000000010000000000000001 w
b1101 9
b1101 U
b1101 v
b1000000010000000100000001 +
b1000000010000000100000001 }
b1000000010000000100000001 $"
b1011 ,
b1011 |
b1011 #"
1!
#380000
0!
#390000
b111111111111 <
b111111111111 f
b111111111111 k
b1000000010001000100010001 D
b1000000010001000100010001 R
b1000000010001000100010001 T
b111111111111 .
b111111111111 W
b111111111111 &"
b100010001000000000001 6
b100010001000000000001 y
b100010001000000000001 {
b1111 8
b1111 x
b1111 z
b10001 E
b10001 Q
b10001 S
b1000000010001000100010001 P
b10010 /
b10010 e
b10010 ""
1-
10
0b
1:
b10011 ;
b10011 g
b10011 l
b100 @
b100 `
b100 i
b10001 A
b10001 _
b10001 h
b1101001010100000100011 %
b1101001010100000100011 '
b1101001010100000100011 )
b1101001010100000100011 r
b10010 Z
b10000000000010000000000000001 +
b10000000000010000000000000001 }
b10000000000010000000000000001 $"
b1101 ,
b1101 |
b1101 #"
b100010001000000000001 7
b100010001000000000001 V
b100010001000000000001 w
b1111 9
b1111 U
b1111 v
b10001 F
b10001 K
b10001 q
b10000000100000000000000000000 G
b10000000100000000000000000000 L
b10000000100000000000000000000 p
b1100101001100000100011 ?
b1100101001100000100011 ^
b1100101001100000100011 t
b100000 >
b100000 Y
b100000 u
b100100 $
b100100 &
b100100 (
b100100 3
b100100 s
b100100 ~
1!
#400000
0!
#410000
b1111111111111111111111111111 <
b1111111111111111111111111111 f
b1111111111111111111111111111 k
b1111111111111111111111111111 .
b1111111111111111111111111111 W
b1111111111111111111111111111 &"
b10001000100010000000100010010 D
b10001000100010000000100010010 R
b10001000100010000000100010010 T
bx %
bx '
bx )
bx r
b10100 /
b10100 e
b10100 ""
1-
10
0b
1:
b10101 ;
b10101 g
b10101 l
b100 @
b100 `
b100 i
b10001 A
b10001 _
b10001 h
b10011 E
b10011 Q
b10011 S
b10001000100010000000100010010 P
b1000000010001000100010001 6
b1000000010001000100010001 y
b1000000010001000100010001 {
b10001 8
b10001 x
b10001 z
b10100 Z
b101000 $
b101000 &
b101000 (
b101000 3
b101000 s
b101000 ~
b1101001010100000100011 ?
b1101001010100000100011 ^
b1101001010100000100011 t
b100100 >
b100100 Y
b100100 u
b10011 F
b10011 K
b10011 q
b111111111111 G
b111111111111 L
b111111111111 p
b1000000010001000100010001 7
b1000000010001000100010001 V
b1000000010001000100010001 w
b10001 9
b10001 U
b10001 v
b100010001000000000001 +
b100010001000000000001 }
b100010001000000000001 $"
b1111 ,
b1111 |
b1111 #"
1!
#420000
0!
#430000
b1000100010001000100010010 D
b1000100010001000100010010 R
b1000100010001000100010010 T
b0 <
b0 f
b0 k
b0 .
b0 W
b0 &"
b0 =
b0 d
b0 j
b0 1
b0 X
b0 %"
b10001000100010000000100010010 6
b10001000100010000000100010010 y
b10001000100010000000100010010 {
b10011 8
b10011 x
b10011 z
b10101 E
b10101 Q
b10101 S
b1000100010001000100010010 P
bx /
bx e
bx ""
bx 2
bx c
bx !"
0-
00
1b
0:
bx ;
bx g
bx l
b0 @
b0 `
b0 i
b0 A
b0 _
b0 h
bx Z
bx [
bx \
bx ]
b1000000010001000100010001 +
b1000000010001000100010001 }
b1000000010001000100010001 $"
b10001 ,
b10001 |
b10001 #"
b10001000100010000000100010010 7
b10001000100010000000100010010 V
b10001000100010000000100010010 w
b10011 9
b10011 U
b10011 v
b10101 F
b10101 K
b10101 q
b1111111111111111111111111111 G
b1111111111111111111111111111 L
b1111111111111111111111111111 p
bx ?
bx ^
bx t
b101000 >
b101000 Y
b101000 u
b101100 $
b101100 &
b101100 (
b101100 3
b101100 s
b101100 ~
1!
#440000
0!
#450000
b0 D
b0 R
b0 T
0B
bx E
bx Q
bx S
b0 P
b1000100010001000100010010 6
b1000100010001000100010010 y
b1000100010001000100010010 {
b10101 8
b10101 x
b10101 z
b110000 $
b110000 &
b110000 (
b110000 3
b110000 s
b110000 ~
b101100 >
b101100 Y
b101100 u
0C
bx F
bx K
bx q
b0 G
b0 L
b0 p
b0 H
b0 M
b0 o
b0 I
b0 N
b0 n
b0 J
b0 O
b0 m
b1000100010001000100010010 7
b1000100010001000100010010 V
b1000100010001000100010010 w
b10101 9
b10101 U
b10101 v
b10001000100010000000100010010 +
b10001000100010000000100010010 }
b10001000100010000000100010010 $"
b10011 ,
b10011 |
b10011 #"
1!
#460000
0!
#470000
b0 6
b0 y
b0 {
04
bx 8
bx x
bx z
b1000100010001000100010010 +
b1000100010001000100010010 }
b1000100010001000100010010 $"
b10101 ,
b10101 |
b10101 #"
b0 7
b0 V
b0 w
05
bx 9
bx U
bx v
b110000 >
b110000 Y
b110000 u
b110100 $
b110100 &
b110100 (
b110100 3
b110100 s
b110100 ~
1!
#480000
0!
#490000
b111000 $
b111000 &
b111000 (
b111000 3
b111000 s
b111000 ~
b110100 >
b110100 Y
b110100 u
b0 +
b0 }
b0 $"
0*
bx ,
bx |
bx #"
1!
#500000
0!
#510000
b111000 >
b111000 Y
b111000 u
b111100 $
b111100 &
b111100 (
b111100 3
b111100 s
b111100 ~
1!
#520000
0!
#530000
b1000000 $
b1000000 &
b1000000 (
b1000000 3
b1000000 s
b1000000 ~
b111100 >
b111100 Y
b111100 u
1!
#540000
0!
#550000
b1000000 >
b1000000 Y
b1000000 u
b1000100 $
b1000100 &
b1000100 (
b1000100 3
b1000100 s
b1000100 ~
1!
#560000
0!
#570000
b1001000 $
b1001000 &
b1001000 (
b1001000 3
b1001000 s
b1001000 ~
b1000100 >
b1000100 Y
b1000100 u
1!
#580000
0!
#590000
b1001000 >
b1001000 Y
b1001000 u
b1001100 $
b1001100 &
b1001100 (
b1001100 3
b1001100 s
b1001100 ~
1!
#600000
0!
#610000
b1010000 $
b1010000 &
b1010000 (
b1010000 3
b1010000 s
b1010000 ~
b1001100 >
b1001100 Y
b1001100 u
1!
#620000
0!
#630000
b1010000 >
b1010000 Y
b1010000 u
b1010100 $
b1010100 &
b1010100 (
b1010100 3
b1010100 s
b1010100 ~
1!
#640000
0!
#650000
b1011000 $
b1011000 &
b1011000 (
b1011000 3
b1011000 s
b1011000 ~
b1010100 >
b1010100 Y
b1010100 u
1!
#660000
0!
#670000
b1011000 >
b1011000 Y
b1011000 u
b1011100 $
b1011100 &
b1011100 (
b1011100 3
b1011100 s
b1011100 ~
1!
#680000
0!
#690000
b1100000 $
b1100000 &
b1100000 (
b1100000 3
b1100000 s
b1100000 ~
b1011100 >
b1011100 Y
b1011100 u
1!
#700000
0!
#710000
b1100000 >
b1100000 Y
b1100000 u
b1100100 $
b1100100 &
b1100100 (
b1100100 3
b1100100 s
b1100100 ~
1!
#720000
0!
#730000
b1101000 $
b1101000 &
b1101000 (
b1101000 3
b1101000 s
b1101000 ~
b1100100 >
b1100100 Y
b1100100 u
1!
#740000
0!
#750000
b1101000 >
b1101000 Y
b1101000 u
b1101100 $
b1101100 &
b1101100 (
b1101100 3
b1101100 s
b1101100 ~
1!
#760000
0!
#770000
b1110000 $
b1110000 &
b1110000 (
b1110000 3
b1110000 s
b1110000 ~
b1101100 >
b1101100 Y
b1101100 u
1!
#780000
0!
#790000
b1110000 >
b1110000 Y
b1110000 u
b1110100 $
b1110100 &
b1110100 (
b1110100 3
b1110100 s
b1110100 ~
1!
#800000
0!
#810000
b1111000 $
b1111000 &
b1111000 (
b1111000 3
b1111000 s
b1111000 ~
b1110100 >
b1110100 Y
b1110100 u
1!
#820000
0!
#830000
b1111000 >
b1111000 Y
b1111000 u
b1111100 $
b1111100 &
b1111100 (
b1111100 3
b1111100 s
b1111100 ~
1!
#840000
0!
#850000
b10000000 $
b10000000 &
b10000000 (
b10000000 3
b10000000 s
b10000000 ~
b1111100 >
b1111100 Y
b1111100 u
1!
#860000
0!
#870000
b10000000 >
b10000000 Y
b10000000 u
b10000100 $
b10000100 &
b10000100 (
b10000100 3
b10000100 s
b10000100 ~
1!
#880000
0!
#890000
b10001000 $
b10001000 &
b10001000 (
b10001000 3
b10001000 s
b10001000 ~
b10000100 >
b10000100 Y
b10000100 u
1!
#900000
0!
#910000
b10001000 >
b10001000 Y
b10001000 u
b10001100 $
b10001100 &
b10001100 (
b10001100 3
b10001100 s
b10001100 ~
1!
#920000
0!
#930000
b10010000 $
b10010000 &
b10010000 (
b10010000 3
b10010000 s
b10010000 ~
b10001100 >
b10001100 Y
b10001100 u
1!
#940000
0!
#950000
b10010000 >
b10010000 Y
b10010000 u
b10010100 $
b10010100 &
b10010100 (
b10010100 3
b10010100 s
b10010100 ~
1!
#960000
0!
#970000
b10011000 $
b10011000 &
b10011000 (
b10011000 3
b10011000 s
b10011000 ~
b10010100 >
b10010100 Y
b10010100 u
1!
#980000
0!
#990000
b10011000 >
b10011000 Y
b10011000 u
b10011100 $
b10011100 &
b10011100 (
b10011100 3
b10011100 s
b10011100 ~
1!
#1000000
0!
#1010000
b10100000 $
b10100000 &
b10100000 (
b10100000 3
b10100000 s
b10100000 ~
b10011100 >
b10011100 Y
b10011100 u
1!
#1020000
0!
#1030000
b10100000 >
b10100000 Y
b10100000 u
b10100100 $
b10100100 &
b10100100 (
b10100100 3
b10100100 s
b10100100 ~
1!
#1040000
0!
#1050000
b10101000 $
b10101000 &
b10101000 (
b10101000 3
b10101000 s
b10101000 ~
b10100100 >
b10100100 Y
b10100100 u
1!
#1060000
0!
#1070000
b10101000 >
b10101000 Y
b10101000 u
b10101100 $
b10101100 &
b10101100 (
b10101100 3
b10101100 s
b10101100 ~
1!
#1080000
0!
#1090000
b10110000 $
b10110000 &
b10110000 (
b10110000 3
b10110000 s
b10110000 ~
b10101100 >
b10101100 Y
b10101100 u
1!
#1100000
0!
#1110000
b10110000 >
b10110000 Y
b10110000 u
b10110100 $
b10110100 &
b10110100 (
b10110100 3
b10110100 s
b10110100 ~
1!
#1120000
0!
#1130000
b10111000 $
b10111000 &
b10111000 (
b10111000 3
b10111000 s
b10111000 ~
b10110100 >
b10110100 Y
b10110100 u
1!
#1140000
0!
#1150000
b10111000 >
b10111000 Y
b10111000 u
b10111100 $
b10111100 &
b10111100 (
b10111100 3
b10111100 s
b10111100 ~
1!
#1160000
0!
#1170000
b11000000 $
b11000000 &
b11000000 (
b11000000 3
b11000000 s
b11000000 ~
b10111100 >
b10111100 Y
b10111100 u
1!
#1180000
0!
#1190000
b11000000 >
b11000000 Y
b11000000 u
b11000100 $
b11000100 &
b11000100 (
b11000100 3
b11000100 s
b11000100 ~
1!
